1 10 20
100 200 125
201 210 89
900 1000 174
868736 52477 525
703245 900840 525
824652 494018 509
772969 933553 525
881647 655258 525
921667 313332 525
670048 902397 525
312974 942389 525
842548 859292 419
746519 739093 424
661439 111125 509
854095 143961 525
156773 591801 470
277230 262843 407
328019 756587 509
340375 679687 509
209883 46742 383
237418 514149 470
611946 992071 525
811496 314447 509
385577 320284 441
119824 701734 509
169136 969109 525
590122 511207 470
508995 995801 525
892411 723792 525
849723 262473 525
641323 593756 509
857544 969880 507
525396 579081 452
572670 372098 470
571678 832109 509
580122 793106 509
597887 462221 470
527029 451949 470
22032 236888 443
749048 840436 525
258107 444510 449
390924 807677 509
891136 775047 525
903254 678206 525
953908 866644 507
446603 137225 449
28581 817763 509
430147 296789 449
599018 111609 470
855813 85433 525
207959 454370 449
928365 229396 525
914123 581924 525
835452 340196 509
508317 61224 449
807491 929441 525
249163 635636 509
552140 581346 421
21620 794407 509
746257 672473 504
395743 409813 405
574390 895600 525
557930 97280 470
560109 315867 470
597171 509328 470
481823 112537 449
667293 278917 509
770468 657679 504
611526 337969 470
953408 606724 525
830427 322956 509
906889 509645 525
886224 744824 525
792922 449295 509
913128 427455 525
761798 174071 509
915731 911139 401
940166 272786 525
758027 164888 509
879387 310498 525
606729 354205 470
775293 774413 437
586395 182704 470
659453 459685 509
939126 622463 525
882817 265672 525
862524 551631 525
225394 180838 386
918597 179729 525
922571 784065 525
747799 357664 509
555532 355010 470
697818 493127 509
772068 726868 468
653994 385647 509
581144 203809 470
980753 687616 525
715738 277863 509
101991 16239 351
778271 392419 509
371216 107880 443
796819 19568 509
716296 653795 504
205343 127559 383
807270 331415 509
886988 873680 445
946191 729790 525
552531 186902 470
502386 353071 449
909840 154076 525
787051 245377 509
954039 413039 525
899723 129254 525
120641 75005 354
763497 84734 509
857092 665467 525
773225 34593 509
983819 780543 525
523051 243606 470
588622 461719 470
592940 585240 403
544244 450059 470
745494 263105 509
561298 450740 470
957181 538966 525
622261 146783 470
973397 212076 525
927804 342746 525
818925 213312 509
754172 328182 509
487817 7165 449
967673 552882 525
948685 755146 525
799812 214262 509
967816 676965 525
185262 84350 383
468479 47770 449
957749 268964 525
804319 259646 509
633767 168178 509
833405 233654 509
905234 39167 525
705841 253389 509
989460 736300 525
715204 556222 509
10000 1000000 525
586911 586911 191
897878 897878 127
597803 597803 98
292977 292977 159
356032 356032 123
76052 76052 56
289503 289503 190
626958 626958 204
378560 378560 180
371069 371069 87
639403 639403 129
851890 851890 83
588773 588773 72
202380 202380 68
321076 321076 48
206970 206970 81
233391 233391 107
166086 166086 228
416347 416347 162
851556 851556 145
416290 416290 131
978042 978042 39
551949 551949 85
158326 158326 127
964713 964713 70
168865 168865 135
507008 507008 59
339385 339385 229
163839 163839 197
