1 10 20
100 200 125
201 210 89
900 1000 174
1 2 2
2 3 8
4 20 21
100 150 122
101 105 88
125 130 122
131 145 117
150 160 86
175 200 120
201 205 40
1000 1005 143
1000 1250 182
1250 1275 177
1275 1277 84
1305 1515 177
1 110 119
1 120 119
1 300 128
1 450 144
10000 10050 211
10001 10150 224
10010 10250 242
10020 10200 224
10025 10225 224
100000 100115 310
100000 100100 310
100250 100500 235
100300 100450 235
100500 101000 266
100500 100575 266
101000 101001 111
101000 101050 235
103000 103100 235
104001 104005 129
104001 104099 279
104075 104100 173
250000 250100 319
250500 250600 288
205750 206000 329
250000 250100 319
250555 250655 257
275000 275100 190
275050 275100 190
800000 800001 132
800000 800100 375
900000 900001 189
900000 900100 370
900000 900500 370
900600 900700 264
900800 900900 233
999998 999999 259
999900 999999 259
999925 999999 259
999950 999999 259
999901 999999 259
999900 999999 259
999870 999999 259
10 20 21
30 50 110
50 150 122
100 101 26
105 106 39
107 108 114
105 110 114
100 200 125
200 300 128
450 550 142
445 550 142
445 446 72
445 450 116
1 99 119
2 99 119
3 99 119
5 99 119
99 100 26
99 101 26
99 106 88
88 99 119
20 25 24
66 69 28
69 96 116
1 5 8
6 12 20
88 120 119
45 145 122
600 650 145
650 655 145
155 200 125
200 225 115
200 250 128
500 550 137
600 666 145
666 689 145
960 1000 143
1000 1001 143
1000 1005 143
2000 2001 113
2000 2005 144
2050 2100 157
2075 3000 217
3000 3150 186
5050 5055 179
9000 9015 141
9022 9023 154
1 11 20
1 111 119
2 90 116
90 100 119
90 120 119
90 150 122
90 190 125
180 200 120
180 280 128
20 20 8
9999 9999 92
1 9999 262
340 3000 217
3000 340 217
500 101 144
1 1 1
9999 9998 92
605293 606510 341
956739 956006 352
826611 825983 313
756134 756776 362
478642 479101 338
815892 815933 269
719220 719135 274
929349 929040 339
948351 948681 326
491808 491202 320
504516 507852 382
604712 604712 67
436809 436182 325
630804 630542 310
975948 975688 334
945718 945752 202
747700 747747 243
652581 653137 336
824003 823974 238
655077 655161 186
567537 567893 346
851101 851038 238
524621 524569 302
549210 549073 240
782205 782263 287
422252 422691 325
285142 285524 376
478472 479285 338
485461 484957 320
748121 748121 256
823874 824088 238
359661 358904 317
388654 388444 299
981428 981459 184
830977 832487 419
654572 654612 248
240125 241624 368
532347 536933 377
545105 545167 209
850670 851113 357
978562 976960 383
319662 322868 371
560495 559981 359
831101 831011 251
784445 782843 331
859271 859331 295
998394 998498 277
975465 975228 228
687538 680880 398
786313 786051 269
780568 780732 300
363174 361163 361
261481 261858 288
908012 909802 370
984442 984350 246
931890 931544 277
788836 791387 406
919454 919499 202
575642 575716 297
915504 916839 339
285788 285880 252
919365 918704 339
827554 827930 313
850429 850334 313
737959 737960 150
