....................
----------------------------------------------------------------------
Ran 20 tests in 0.065s

OK
Name             Stmts   Miss Branch BrPart  Cover   Missing
------------------------------------------------------------
Collatz.py          63      0     32      0   100%
TestCollatz.py      78      0      0      0   100%
------------------------------------------------------------
TOTAL              141      0     32      0   100%
